app/src/emulator/backend/test.vcd
$timescale 10ns $end
$scope module logic $end
$var wire 1 ! avr.A0 $end
$var wire 1 " avr.A1 $end
$var wire 1 # avr.A3 $end
$var wire 1 $ avr.A4 $end
$var wire 1 % avr.A5 $end
$var wire 1 & avr.A6 $end
$var wire 1 ' avr.B0 $end
$var wire 1 ( avr.B1 $end
$var wire 1 ) avr.B2 $end
$upscope $end
$enddefinitions $end
$dumpvars
x!
x"
x#
x$
x%
x&
x'
x(
x)
$end
#0
1'
1(
1)
#75
0!
0"
0#
0$
0%
0&
#93
1!
1"
#83333325
0'
0(
0)
#83333326
1'
1(
1)
#166666662
0'
0(
0)
#166666663
1'
1(
1)
#249999993
0'
0(
0)
#249999994
1'
1(
1)
#333333325
0'
0(
0)
#333333326
1'
1(
1)
#416666662
0'
0(
0)
#416666663
1'
1(
1)
#499999993
0'
0(
0)
#499999994
1'
1(
1)
#583333325
0'
0(
0)
#583333326
1'
1(
1)
#666666662
0'
0(
0)
#666666663
1'
1(
1)
#749999993
0'
0(
0)
#749999994
1'
1(
1)
#833333325
0'
0(
0)
